<?xml version="1.0" encoding="utf-8"?>
<!-- Generator: Adobe Illustrator 22.1.0, SVG Export Plug-In . SVG Version: 6.00 Build 0)  -->
<svg version="1.1" id="图层_1" xmlns="http://www.w3.org/2000/svg" xmlns:xlink="http://www.w3.org/1999/xlink" x="0px" y="0px"
	 viewBox="0 0 120 120" style="enable-background:new 0 0 120 120;" xml:space="preserve">
<style type="text/css">
	.st0{fill-rule:evenodd;clip-rule:evenodd;fill:#595757;}
	.st1{fill-rule:evenodd;clip-rule:evenodd;fill:url(#SVGID_1_);}
</style>
<g>
	<path class="st0" d="M161.6,78.2L161.6,78.2l2.7,0c3,0,5.5,2.5,5.5,5.5s-2.5,5.5-5.5,5.5v0l-2.7,0v0l-2.3,0l0-11L161.6,78.2
		L161.6,78.2z M161.6,80.5l0,6.4h2.7v0c1.8,0,3.2-1.4,3.2-3.2s-1.4-3.2-3.2-3.2v0L161.6,80.5L161.6,80.5z"/>
	<path class="st0" d="M181.1,84.5C181.1,84.5,181.1,84.5,181.1,84.5c0,2.6-2.1,4.7-4.7,4.7s-4.7-2.1-4.7-4.7c0,0,0,0,0,0l0-6.3h2.3
		l0,6.3h0c0,0,0,0,0,0c0,1.3,1.1,2.4,2.4,2.4c1.3,0,2.4-1.1,2.4-2.4c0,0,0,0,0,0h0l0-6.3h2.3L181.1,84.5L181.1,84.5z"/>
	<path class="st0" d="M157.5,84.5C157.5,84.5,157.5,84.5,157.5,84.5c0,2.6-2.1,4.7-4.7,4.7s-4.7-2.1-4.7-4.7c0,0,0,0,0,0l0-6.3h2.3
		l0,6.3h0c0,0,0,0,0,0c0,1.3,1.1,2.4,2.4,2.4c1.3,0,2.4-1.1,2.4-2.4c0,0,0,0,0,0h0l0-6.3h2.3L157.5,84.5L157.5,84.5z"/>
	<polygon class="st0" points="133.4,78.2 135.4,85.4 137.3,78.2 140,78.2 141.9,85.4 143.9,78.2 146.3,78.2 143.3,89.2 140.5,89.2 
		138.7,82.2 136.8,89.2 134,89.2 131,78.2 133.4,78.2 	"/>
	<path class="st0" d="M226.6,78.1L226.6,78.1l4.1,0v0l0,0c1.9,0,3.5,1.6,3.5,3.6c0,1.4-0.8,2.6-1.9,3.2c1.1,1.1,1.8,2.6,1.9,4.3
		h-2.3c-0.1-2-1.7-3.6-3.7-3.9h-1.6v3.9l-2.3,0l0-11l0.1,0v0h1.1L226.6,78.1L226.6,78.1z M230.7,80.4L230.7,80.4l-4.1,0V83h4.1l0,0
		c0.7,0,1.2-0.6,1.2-1.3C231.9,81.1,231.3,80.5,230.7,80.4L230.7,80.4z"/>
	<polygon class="st0" points="215,80.5 215,82.5 222.2,82.5 222.2,84.8 215,84.8 215,86.9 222.2,86.9 222.2,89.2 212.8,89.2 
		212.7,89.2 212.7,78.2 212.8,78.2 212.8,78.2 214.6,78.2 215,78.2 222.2,78.2 222.2,80.5 215,80.5 	"/>
	<polygon class="st0" points="203.1,78.2 203.1,78.2 208.4,85.3 208.4,78.2 210.7,78.2 210.7,88.4 210.7,88.4 210.7,89.2 
		210.7,89.2 208.4,89.2 208.4,89.2 208.4,89.2 208.4,89.2 203.1,82 203.1,89.2 200.8,89.2 200.8,78.9 200.8,78.2 200.8,78.2 
		203.1,78.2 203.1,78.2 203.1,78.2 	"/>
	<polygon class="st0" points="191.5,80.5 191.5,82.5 198.7,82.5 198.7,84.8 191.5,84.8 191.5,86.9 198.7,86.9 198.7,89.2 
		189.3,89.2 189.2,89.2 189.2,78.2 189.3,78.2 189.3,78.2 191.1,78.2 191.5,78.2 198.7,78.2 198.7,80.5 191.5,80.5 	"/>
	<path class="st0" d="M244.2,78.1L244.2,78.1l-2.7,0c-3,0-5.5,2.5-5.5,5.5s2.5,5.5,5.5,5.5v0l2.7,0v0l2.3,0l0-6.5h-0.3h-2h-2.7v2.2
		h2.7v2.1h-2.7v0c-1.8,0-3.2-1.4-3.2-3.2s1.4-3.2,3.2-3.2v0h0.8h4.2v-2.3L244.2,78.1L244.2,78.1z"/>
	<polygon class="st0" points="254.8,84.6 259.1,78.2 256.4,78.2 253.7,82.2 251,78.2 248.2,78.2 252.5,84.6 252.5,89.2 254.8,89.2 
		254.8,84.6 	"/>
	<g>
		<path class="st0" d="M165.4,65.7h6.6v-2.6h-6.6V65.7L165.4,65.7z M172,57.3h-6.6v2.6h6.6V57.3L172,57.3z M172.3,44.4h-2.9v3.4
			C170.4,46.7,171.4,45.6,172.3,44.4L172.3,44.4z M158.4,47.9h6.6v-3.5h-5.4v-3.7h5.4v-3.5h4.4v3.5h3.5v2.9c0.8-1.1,1.5-2.2,2.3-3.4
			l3.3,2v-3.4h13.1V42c-1.2,3.4-2.3,6.5-3.4,9.2c2.4,2.7,3.6,5.7,3.6,9.2c0,1.9-0.5,3.3-1.4,4.4c-0.9,1.1-3,1.5-6.3,1.3l-0.8-4.6
			c0.9,0.1,1.5,0.2,2,0.2c1.4,0,2.1-0.6,2.1-1.9c0-2.9-1.3-5.6-3.8-8.2c1.3-3,2.5-6,3.5-8.9h-4.2v27.9h-4.4V42.5
			c-1.3,2-2.6,3.8-3.9,5.4h1.7v3.7h-5.1c-0.8,0.8-1.7,1.6-2.6,2.4h7.7v16.4H172v-1.3h-6.6v1.3h-4.3V59.3c-0.7,0.5-1.7,1.1-2.7,1.4
			v-4.6c2.7-1.3,5.2-2.9,6.9-4.6h-6.9V47.9L158.4,47.9z"/>
		<path class="st0" d="M122.9,58h12.5c0.1-0.7,0.2-1.6,0.3-2.6H124v-3.7h28.3v3.7h-11.9c0,0.9-0.1,1.8-0.3,2.6h13.4v3.8h-11.5
			c2.3,2.3,6.2,3.8,11.5,4.5l-1.8,4.3c-6.4-1-10.9-3.3-13.7-7c-2.1,3-6.6,5.4-13.6,7.3l-1.7-4.3c5.8-1.2,9.5-2.8,11-4.8h-11V58
			L122.9,58z"/>
		<path class="st0" d="M125,38.4h27.5v11H125V38.4L125,38.4z M147.9,42.1h-18.3v3.5h18.3V42.1L147.9,42.1z"/>
		<path class="st0" d="M251.9,66.3c1.1,0.2,2.9,0.3,2.9-1.4v-5.4h-6V45.2h3.6c0.4-0.9,0.8-1.9,1.1-2.9h-7.3v10.2
			c0,8.5-1.3,14.6-3.8,18.3c-1.4-1.4-2.7-2.5-3.8-3.3c2.2-3.3,3.3-8.5,3.3-15.7V38.5h23.8v3.8H258c-0.3,0.7-0.7,1.6-1.4,2.9h8.2
			v14.3h-5.7v6.4c0,1.3-0.3,2.3-0.8,3c-0.7,1-1.7,1.5-2.9,1.5h-2.3L251.9,66.3L251.9,66.3z M260.5,63.3c0.8,2.2,1.9,4.5,3.2,6.9
			l3.6-1.9c-1.2-2-2.4-4.3-3.5-6.8L260.5,63.3L260.5,63.3z M251.8,62.9c-0.5,2.3-1.3,4.7-2.3,7.3l-3.8-1.4c0.9-2.2,1.8-4.5,2.6-7.2
			L251.8,62.9L251.8,62.9z M239.3,50.9c-3.1,0.3-5.4,0.4-6.9,0.5l0.1-4.7c2.2,0.1,4.6,0.2,7,0.1L239.3,50.9L239.3,50.9z M239.3,42.7
			c-3.1,0.3-5.4,0.4-6.9,0.5l0.1-4.7c2.2,0.1,4.6,0.2,7,0.1L239.3,42.7L239.3,42.7z M234.2,55.3c1.8,0.7,3.3,1.2,4.5,1.4l-2.4,13.6
			c-1.6-0.5-3.2-0.9-4.8-1.2C232.5,65.5,233.4,60.9,234.2,55.3L234.2,55.3z M260.7,48.7h-7.7v2.1h7.7V48.7L260.7,48.7z M260.7,56.1
			v-2.2h-7.7v2.2H260.7L260.7,56.1z"/>
		<path class="st0" d="M208.5,40c1.6,2.3,3.3,4.7,5,7.3c-1.4,0.8-2.6,1.5-3.6,2.1l-0.9-1.6l-13.1,0.9l-1.2-3.8
			c1.5-0.8,3.7-3.4,6.7-7.9l4.3,1.6l-4.9,6l6.2-0.3c-0.6-0.9-1.1-1.7-1.7-2.6L208.5,40L208.5,40z M227.5,70.3c-0.1,0-5.1,0-5.2,0
			h-3.5c-3.5,0-5.2-1.7-5.3-5.1V54.6h4.3v5.1c2.8-1.3,5.1-2.5,7.1-3.6l3,3.5c-2.5,1.1-5.8,2.5-10,4.1v1.1c0,1.3,0.8,1.9,2.3,1.9h1.1
			c0.5,0,5.9-0.1,6.3-0.3V70.3L227.5,70.3z M227.5,53.1c-0.1,0-5.1,0-5.2,0h-3.5c-3.5,0-5.2-1.7-5.3-5.1V37.3h4.3v5.1
			c2.8-1.3,5.1-2.5,7.1-3.6l3,3.5c-2.5,1.1-5.8,2.5-10,4.1v1.1c0,1.3,0.8,1.9,2.3,1.9h1.1c0.5,0,5.9-0.2,6.3-0.3V53.1L227.5,53.1z
			 M200.7,70.3h-4.2V49.8H211v15.9c0,1.3-0.2,2.3-0.7,3.1c-0.5,0.7-1.2,1.1-2.2,1.3c-1,0.1-2.6,0.2-4.8,0.1c-0.3-1.3-0.7-2.7-1.1-4
			c1.1,0.1,2,0.1,2.6,0.1c0.9,0,1.4-0.2,1.6-0.5c0.2-0.3,0.3-0.7,0.3-1.1v-0.8h-6V70.3L200.7,70.3z M206.8,53.5h-6v1.9h6V53.5
			L206.8,53.5z M200.7,60.7h6v-1.9h-6V60.7L200.7,60.7z"/>
	</g>
</g>
<radialGradient id="SVGID_1_" cx="-609.4114" cy="174.3207" r="166.1206" gradientTransform="matrix(0.6132 0 0 0.6132 430.5134 10.8209)" gradientUnits="userSpaceOnUse">
	<stop  offset="0" style="stop-color:#D8E698"/>
	<stop  offset="0.15" style="stop-color:#8FC31F"/>
	<stop  offset="0.26" style="stop-color:#72BB2B"/>
	<stop  offset="0.36" style="stop-color:#45B035"/>
	<stop  offset="0.45" style="stop-color:#009B9A"/>
	<stop  offset="0.61" style="stop-color:#0081CC"/>
	<stop  offset="0.71" style="stop-color:#0075C2"/>
	<stop  offset="0.97" style="stop-color:#0075C2"/>
	<stop  offset="0.99" style="stop-color:#005BAC"/>
	<stop  offset="1" style="stop-color:#004098"/>
</radialGradient>
<path class="st1" d="M55.9,15.8c25,0,45.5,20.4,45.5,45.5c0,14.2-6.6,27-16.9,35.3c-0.6,0.5-1.1,0.4-1.5,0.3c-7.3-2.5-15-3.9-23-4.2
	c-0.9,0-2.1,0-2.3,1c-0.1,0.7,0.6,1.4,2.3,1.6c5.3,0.6,10.7,2.1,15.5,4.5c1.4,0.7,0.7,2.3,0,2.5c-5.9,2.9-12.6,4.5-19.6,4.5
	c-7,0-13.7-1.6-19.6-4.5c-0.9-0.3-1.2-1.8,0-2.5c4.8-2.4,10.3-4,15.5-4.5c1.6-0.2,2.4-0.8,2.3-1.6c-0.1-1.1-1.4-1.1-2.3-1
	C43.7,93,36,94.4,28.7,96.9c-0.3,0.1-0.8,0.1-1.3-0.3c-10.3-8.3-16.9-21.1-16.9-35.3C10.4,36.3,30.9,15.8,55.9,15.8L55.9,15.8z
	 M40.1,88.4c-1.1,0.2-4.2,0.9-5.4,1.3c-2.2,0.6-3.7-1.3-2-2.8c1.1-1,3-1.8,3.8-2.1c2.4-1,5.1-1.9,6.8-2.4c0.9-0.3,1.7-0.5,2.3-0.6
	c0.7-0.2,1.3-0.6,1.2-1.1c-0.1-1-2.4-1.5-3.1-1.6c-1.3-0.3-2.7-0.4-3.6-0.5c-1.3-0.2-2.9-0.3-4-0.4c-1.8-0.2-2.1-2.1-0.1-2.5
	c13.1-3.2,26.4-3.2,39.5,0c1.9,0.4,1.7,2.3-0.1,2.5c-1.1,0.1-2.6,0.3-4,0.4c-0.8,0.1-2.2,0.2-3.6,0.5c-0.7,0.1-3,0.7-3.1,1.6
	c0,0.5,0.5,0.9,1.2,1.1c0.6,0.2,1.4,0.4,2.3,0.6c1.8,0.5,4.4,1.4,6.8,2.4c0.8,0.3,2.8,1.1,3.8,2.1c1.7,1.6,0.1,3.4-2,2.8
	c-1.2-0.4-4.4-1-5.4-1.3C61.2,86.3,50.6,86.3,40.1,88.4L40.1,88.4z M55.9,58.9C55.9,58.9,55.9,58.9,55.9,58.9c-3.3,0-6.1,2.7-6.1,6
	v3.9v0c-3.5,0.2-6.8,0.5-10,1l-0.2-0.6L34.2,56c-0.3-0.8-0.6-1.5-0.9-2.1c-0.1-0.2-0.2-0.5-0.1-0.8c0.1-0.1,0.2-0.2,0.3-0.3
	c0.2-0.1,0.4-0.2,0.7-0.3c2.3-0.8,4.6-1.5,7-2.1c0.1,0,0.4-0.1,0.6,0c0.1,0.1,0.2,0.2,0.3,0.5l0.2,0.9c0.9-0.2,1.8-0.4,2.8-0.6
	c0,0,0,0,0,0l-0.2-0.9c0,0,0-0.1,0-0.3c0-0.1,0-0.2,0.1-0.3c0.1-0.1,0.1-0.2,0.3-0.2c0.1,0,0.2,0,0.3-0.1c2.8-0.5,5.6-0.8,8.5-0.9
	c0.1,0,0.4,0,0.5,0.2c0.1,0.1,0.2,0.3,0.2,0.5v0.9c0.5,0,0.9,0,1.4,0c0.5,0,0.9,0,1.4,0v-0.9c0-0.3,0-0.4,0.2-0.5
	c0.2-0.2,0.4-0.2,0.5-0.2c2.9,0.1,5.7,0.4,8.5,0.9c0.1,0,0.2,0,0.3,0.1c0.1,0,0.2,0.1,0.3,0.2c0.1,0.1,0.1,0.2,0.1,0.3
	c0,0.1,0,0.2,0,0.3l-0.2,0.9c0,0,0,0,0,0c0.9,0.2,1.9,0.4,2.8,0.6l0.2-0.9c0-0.3,0.1-0.4,0.3-0.5c0.2-0.1,0.5-0.1,0.6,0
	c2.4,0.6,4.7,1.3,6.9,2.1c0.2,0.1,0.4,0.2,0.7,0.3c0.2,0.1,0.3,0.1,0.3,0.3c0.1,0.3,0,0.5-0.1,0.8c-0.2,0.6-0.5,1.3-0.9,2.1
	l-5.5,13.2L72,69.8c-3.2-0.5-6.5-0.8-10-1v0v-3.9C62,61.6,59.3,58.9,55.9,58.9C55.9,58.9,55.9,58.9,55.9,58.9L55.9,58.9z"/>
</svg>
