
   _____  _____ _  _ ___  _____   _____           _           _   
  / ____|/ ____| || |__ \| ____| |  __ \         (_)         | |  
 | |    | (___ | || |_ ) | |__   | |__) | __ ___  _  ___  ___| |_ 
 | |     \___ \|__   _/ /|___ \  |  ___/ '__/ _ \| |/ _ \/ __| __|
 | |____ ____) |  | |/ /_ ___) | | |   | | | (_) | |  __/ (__| |_ 
  \_____|_____/   |_|____|____/  |_|   |_|  \___/| |\___|\___|\__|
                                                _/ |              
                                               |__/